{
  "products": [{
    "id": "3141",
    "name": "PLA Rinti Kennerfleisch Gefluegelherzen 800g",
    "price": "2.95",
    "currency": "EUR",
    "image_base_url": "img3141"
  }, {
    "id": "7526",
    "name": "PLA Rinti Kennerfleisch Seefisch 800g",
    "price": "3.99",
    "currency": "EUR",
    "image_base_url": "img7526"
  }, {
    "id": "11887",
    "name": "PLA Felix Leckerbissen in Sosse Kaninchen Huhn 400g",
    "price": "19.95",
    "currency": "EUR",
    "image_base_url": "img11887"
  }, {
    "id": "12248",
    "name": "wow_dose 800g arcticspirit",
    "price": "1.15",
    "currency": "EUR",
    "image_base_url": "img12248"
  }, {
    "id": "12249",
    "name": "wow dose 800g greenfields",
    "price": "10.02",
    "currency": "EUR",
    "image_base_url": "img12249"
  }, {
    "id": "28041",
    "name": "28041 pla rocco sensitive huhn 6x 800g",
    "price": "11.01",
    "currency": "EUR",
    "image_base_url": "img28015"
  }, {
    "id": "31085",
    "name": "pla animonda grancarn",
    "price": "12.22",
    "currency": "EUR",
    "image_base_url": "img31085"
  }, {
    "id": "51197",
    "name": "pla animonda multifle",
    "price": "13.03",
    "currency": "EUR",
    "image_base_url": "img31413"
  }, {
    "id": "28015",
    "name": "pla rocco classic rind huhn 6x 800g",
    "price": "999.99",
    "currency": "EUR",
    "image_base_url": "img51197"
  }]
}